module github.com/mrosset/via

require (
	astuart.co/goq v0.0.0-20180524212434-77b263fb8a92
	github.com/PuerkitoBio/goquery v1.5.0 // indirect
	github.com/agl/ed25519 v0.0.0-20170116200512-5312a6153412 // indirect
	github.com/blang/semver v3.5.1+incompatible
	github.com/btcsuite/btcd v0.0.0-20190109040709-5bda5314ca95 // indirect
	github.com/cheekybits/is v0.0.0-20150225183255-68e9c0620927
	github.com/gogo/protobuf v1.2.0 // indirect
	github.com/gxed/hashland v0.0.0-20180221191214-d9f6b97f8db2 // indirect
	github.com/ipfs/go-ipfs-api v1.3.3-0.20181230163852-a81f9093bbd3
	github.com/ipfs/go-ipfs-files v0.0.0-20181213224250-86b2cb84da86 // indirect
	github.com/libp2p/go-flow-metrics v0.2.0 // indirect
	github.com/libp2p/go-libp2p-crypto v2.0.1+incompatible // indirect
	github.com/libp2p/go-libp2p-metrics v2.1.7+incompatible // indirect
	github.com/libp2p/go-libp2p-peer v2.4.0+incompatible // indirect
	github.com/libp2p/go-libp2p-protocol v1.0.0 // indirect
	github.com/minio/blake2b-simd v0.0.0-20160723061019-3f5f724cb5b1 // indirect
	github.com/minio/sha256-simd v0.0.0-20190108234304-79eac576c45d // indirect
	github.com/mr-tron/base58 v1.1.0 // indirect
	github.com/mrosset/gurl v0.0.0-20190115075543-4e89645fd339
	github.com/mrosset/util v0.0.0-20171017103019-cbd40a79bc60
	github.com/multiformats/go-multiaddr v1.4.0 // indirect
	github.com/multiformats/go-multiaddr-dns v0.2.5 // indirect
	github.com/multiformats/go-multiaddr-net v1.7.1 // indirect
	github.com/multiformats/go-multihash v1.0.8 // indirect
	github.com/spaolacci/murmur3 v0.0.0-20180118202830-f09979ecbc72 // indirect
	github.com/whyrusleeping/progmeter v0.0.0-20180725015555-f3e57218a75b
	github.com/whyrusleeping/tar-utils v0.0.0-20180509141711-8c6c8ba81d5c // indirect
	golang.org/x/crypto v0.0.0-20190103213133-ff983b9c42bc
	gopkg.in/src-d/go-git.v4 v4.8.1
	gopkg.in/urfave/cli.v2 v2.0.0-20180128182452-d3ae77c26ac8
)
